^E:\WORK\PROJECTS\SMARTPEN POSITION MAPPING\POSITION MAPPING\POSITION MAPPING\DEBUG\POSITION MAPPING.OBJ|E:\WORK\PROJECTS\SMARTPEN POSITION MAPPING\POSITION MAPPING\POSITION MAPPING\DEBUG\STDAFX.OBJ
E:\WORK\PROJECTS\SMARTPEN POSITION MAPPING\POSITION MAPPING\DEBUG\POSITION MAPPING.ILK
E:\WORK\PROJECTS\SMARTPEN POSITION MAPPING\POSITION MAPPING\DEBUG\POSITION MAPPING.EXE
E:\WORK\PROJECTS\SMARTPEN POSITION MAPPING\POSITION MAPPING\DEBUG\POSITION MAPPING.PDB
^E:\WORK\PROJECTS\SMARTPEN POSITION MAPPING\POSITION MAPPING\DEBUG\POSITION MAPPING.OBJ|E:\WORK\PROJECTS\SMARTPEN POSITION MAPPING\POSITION MAPPING\DEBUG\STDAFX.OBJ
E:\WORK\PROJECTS\SMARTPEN POSITION MAPPING\DEBUG\POSITION MAPPING.EXE
E:\WORK\PROJECTS\SMARTPEN POSITION MAPPING\DEBUG\POSITION MAPPING.ILK
E:\WORK\PROJECTS\SMARTPEN POSITION MAPPING\DEBUG\POSITION MAPPING.PDB
