^E:\WORK\PROJECTS\SMARTPEN POSITION MAPPING\POSITION MAPPING\POSITION MAPPING\DEBUG\POSITION MAPPING.OBJ|E:\WORK\PROJECTS\SMARTPEN POSITION MAPPING\POSITION MAPPING\POSITION MAPPING\DEBUG\STDAFX.OBJ
/OUT:"E:\WORK\PROJECTS\SMARTPEN POSITION MAPPING\POSITION MAPPING\DEBUG\POSITION MAPPING.EXE" /INCREMENTAL /NOLOGO KERNEL32.LIB USER32.LIB GDI32.LIB WINSPOOL.LIB COMDLG32.LIB ADVAPI32.LIB SHELL32.LIB OLE32.LIB OLEAUT32.LIB UUID.LIB ODBC32.LIB ODBCCP32.LIB /MANIFEST /MANIFESTUAC:"level='asInvoker' uiAccess='false'" /manifest:embed /DEBUG:FASTLINK /PDB:"E:\WORK\PROJECTS\SMARTPEN POSITION MAPPING\POSITION MAPPING\DEBUG\POSITION MAPPING.PDB" /SUBSYSTEM:CONSOLE /TLBID:1 /DYNAMICBASE /NXCOMPAT /IMPLIB:"E:\WORK\PROJECTS\SMARTPEN POSITION MAPPING\POSITION MAPPING\DEBUG\POSITION MAPPING.LIB" /MACHINE:X86 "DEBUG\POSITION MAPPING.OBJ"DEBUG\STDAFX.OBJ
^E:\WORK\PROJECTS\SMARTPEN POSITION MAPPING\POSITION MAPPING\DEBUG\POSITION MAPPING.OBJ|E:\WORK\PROJECTS\SMARTPEN POSITION MAPPING\POSITION MAPPING\DEBUG\STDAFX.OBJ
/OUT:"E:\WORK\PROJECTS\SMARTPEN POSITION MAPPING\DEBUG\POSITION MAPPING.EXE" /INCREMENTAL /NOLOGO KERNEL32.LIB USER32.LIB GDI32.LIB WINSPOOL.LIB COMDLG32.LIB ADVAPI32.LIB SHELL32.LIB OLE32.LIB OLEAUT32.LIB UUID.LIB ODBC32.LIB ODBCCP32.LIB /MANIFEST /MANIFESTUAC:"level='asInvoker' uiAccess='false'" /manifest:embed /DEBUG:FASTLINK /PDB:"E:\WORK\PROJECTS\SMARTPEN POSITION MAPPING\DEBUG\POSITION MAPPING.PDB" /SUBSYSTEM:CONSOLE /TLBID:1 /DYNAMICBASE /NXCOMPAT /IMPLIB:"E:\WORK\PROJECTS\SMARTPEN POSITION MAPPING\DEBUG\POSITION MAPPING.LIB" /MACHINE:X86 "DEBUG\POSITION MAPPING.OBJ"DEBUG\STDAFX.OBJ
